digraph "src/herd-broker-lib.h"
{
 // INTERACTIVE_SVG=YES
  edge [fontname="Helvetica",fontsize="10",labelfontname="Helvetica",labelfontsize="10"];
  node [fontname="Helvetica",fontsize="10",shape=record];
  Node1 [label="src/herd-broker-lib.h",height=0.2,width=0.4,color="black", fillcolor="grey75", style="filled" fontcolor="black"];
  Node1 -> Node2 [dir="back",color="midnightblue",fontsize="10",style="solid",fontname="Helvetica"];
  Node2 [label="src/herd-broker-lib.cpp",height=0.2,width=0.4,color="black", fillcolor="white", style="filled",URL="$dd/dd1/herd-broker-lib_8cpp.html"];
  Node1 -> Node3 [dir="back",color="midnightblue",fontsize="10",style="solid",fontname="Helvetica"];
  Node3 [label="test/herd-broker-lib\l-test.cpp",height=0.2,width=0.4,color="black", fillcolor="white", style="filled",URL="$d7/dea/herd-broker-lib-test_8cpp.html"];
  Node3 -> Node4 [dir="back",color="midnightblue",fontsize="10",style="solid",fontname="Helvetica"];
  Node4 [label="test/run-tests.cpp",height=0.2,width=0.4,color="black", fillcolor="white", style="filled",URL="$de/d9f/run-tests_8cpp.html"];
}
